Procesamiento de datos con tidyverse
…
Chequeo

Y para finalizar un poco más tranquiles de haber hecho todo bien, después de tanto cambio, está bueno hacer algún chequeo. En este caso vamos a contar la cantidad de trials que le quedó a cada participante. Para eso agrupamos los datos según su id con group_by() y lo que mostramos de cada agrupación es el número de observaciones que agrupé. Esto último lo especifico con count(). Si todo viene bien, y según mis cálculos de acuerdo al diseño, cada participante debería tener 240 observaciones.

trials_count <- data_raw %>% 
  group_by(id) %>% 
  count()
slice(trials_count, 1:10)

## # A tibble: 70 x 2
## # Groups:   id [70]
##    id                     n
##    <chr>              <int>
##  1 41224648             240
##  2 Agostina Rosales     240
##  3 Agustina Carpio      240
##  4 AgustinaValdenegro   240
##  5 amparo calviÃ±o      240
##  6 AndrÃ©s Santos       240
##  7 Andrea Moratti       240
##  8 Ariana Luppino       240
##  9 Camila Lumani        240
## 10 Camila Sanchez       240
## # ... with 60 more rows
…
